module github.com/cnrancher/autok3s

go 1.16

replace (
	github.com/containerd/containerd => github.com/k3s-io/containerd v1.5.7-k3s1
	github.com/kubernetes-sigs/cri-tools => github.com/k3s-io/cri-tools v1.21.0-k3s1
	k8s.io/api => github.com/k3s-io/kubernetes/staging/src/k8s.io/api v1.22.2-k3s1
	k8s.io/apiextensions-apiserver => github.com/k3s-io/kubernetes/staging/src/k8s.io/apiextensions-apiserver v1.22.2-k3s1
	k8s.io/apimachinery => github.com/k3s-io/kubernetes/staging/src/k8s.io/apimachinery v1.22.2-k3s1
	k8s.io/apiserver => github.com/k3s-io/kubernetes/staging/src/k8s.io/apiserver v1.22.2-k3s1
	k8s.io/cli-runtime => github.com/k3s-io/kubernetes/staging/src/k8s.io/cli-runtime v1.22.2-k3s1
	k8s.io/client-go => github.com/k3s-io/kubernetes/staging/src/k8s.io/client-go v1.22.2-k3s1
	k8s.io/cloud-provider => github.com/k3s-io/kubernetes/staging/src/k8s.io/cloud-provider v1.22.2-k3s1
	k8s.io/cluster-bootstrap => github.com/k3s-io/kubernetes/staging/src/k8s.io/cluster-bootstrap v1.22.2-k3s1
	k8s.io/code-generator => github.com/k3s-io/kubernetes/staging/src/k8s.io/code-generator v1.22.2-k3s1
	k8s.io/component-base => github.com/k3s-io/kubernetes/staging/src/k8s.io/component-base v1.22.2-k3s1
	k8s.io/component-helpers => github.com/k3s-io/kubernetes/staging/src/k8s.io/component-helpers v1.22.2-k3s1
	k8s.io/controller-manager => github.com/k3s-io/kubernetes/staging/src/k8s.io/controller-manager v1.22.2-k3s1
	k8s.io/cri-api => github.com/k3s-io/kubernetes/staging/src/k8s.io/cri-api v1.22.2-k3s1
	k8s.io/csi-translation-lib => github.com/k3s-io/kubernetes/staging/src/k8s.io/csi-translation-lib v1.22.2-k3s1
	k8s.io/kube-aggregator => github.com/k3s-io/kubernetes/staging/src/k8s.io/kube-aggregator v1.22.2-k3s1
	k8s.io/kube-controller-manager => github.com/k3s-io/kubernetes/staging/src/k8s.io/kube-controller-manager v1.22.2-k3s1
	k8s.io/kube-proxy => github.com/k3s-io/kubernetes/staging/src/k8s.io/kube-proxy v1.22.2-k3s1
	k8s.io/kube-scheduler => github.com/k3s-io/kubernetes/staging/src/k8s.io/kube-scheduler v1.22.2-k3s1
	k8s.io/kubectl => github.com/k3s-io/kubernetes/staging/src/k8s.io/kubectl v1.22.2-k3s1
	k8s.io/kubelet => github.com/k3s-io/kubernetes/staging/src/k8s.io/kubelet v1.22.2-k3s1
	k8s.io/kubernetes => github.com/k3s-io/kubernetes v1.22.2-k3s1
	k8s.io/legacy-cloud-providers => github.com/k3s-io/kubernetes/staging/src/k8s.io/legacy-cloud-providers v1.22.2-k3s1
	k8s.io/metrics => github.com/k3s-io/kubernetes/staging/src/k8s.io/metrics v1.22.2-k3s1
	k8s.io/mount-utils => github.com/k3s-io/kubernetes/staging/src/k8s.io/mount-utils v1.22.2-k3s1
	k8s.io/node-api => github.com/k3s-io/kubernetes/staging/src/k8s.io/node-api v1.22.2-k3s1
	k8s.io/pod-security-admission => github.com/k3s-io/kubernetes/staging/src/k8s.io/pod-security-admission v1.22.2-k3s1
	k8s.io/sample-apiserver => github.com/k3s-io/kubernetes/staging/src/k8s.io/sample-apiserver v1.22.2-k3s1
	k8s.io/sample-cli-plugin => github.com/k3s-io/kubernetes/staging/src/k8s.io/sample-cli-plugin v1.22.2-k3s1
	k8s.io/sample-controller => github.com/k3s-io/kubernetes/staging/src/k8s.io/sample-controller v1.22.2-k3s1
)

require (
	github.com/alexellis/go-execute v0.0.0-20200124154445-8697e4e28c5e
	github.com/aliyun/alibaba-cloud-sdk-go v1.61.381
	github.com/aws/aws-sdk-go v1.38.49
	github.com/containerd/containerd v1.5.7 // indirect
	github.com/creack/pty v1.1.11
	github.com/docker/docker v20.10.6+incompatible
	github.com/docker/go-units v0.4.0
	github.com/gofrs/flock v0.7.1
	github.com/gorilla/mux v1.8.0
	github.com/gorilla/websocket v1.4.2
	github.com/hpcloud/tail v1.0.0
	github.com/moby/term v0.0.0-20210610120745-9d4ed1856297
	github.com/morikuni/aec v1.0.0
	github.com/olekukonko/tablewriter v0.0.4
	github.com/onsi/ginkgo v1.16.1
	github.com/onsi/gomega v1.11.0
	github.com/rancher/apiserver v0.0.0-20201023000256-1a0a904f9197
	github.com/rancher/k3d/v4 v4.4.8
	github.com/rancher/k3s v1.19.5-0.20201117235738-2532c10faad4
	github.com/rancher/wrangler v0.6.1
	github.com/sirupsen/logrus v1.8.1
	github.com/spf13/cobra v1.1.3
	github.com/spf13/pflag v1.0.5
	github.com/stretchr/testify v1.7.0
	github.com/tencentcloud/tencentcloud-sdk-go v1.0.34
	golang.org/x/crypto v0.0.0-20210322153248-0c34fe9e7dc2
	golang.org/x/net v0.0.0-20210520170846-37e1c6afe023
	golang.org/x/sync v0.0.0-20210220032951-036812b2e83c
	gopkg.in/yaml.v3 v3.0.0-20210107192922-496545a6307b
	gorm.io/driver/sqlite v1.1.4
	gorm.io/gorm v1.20.12
	k8s.io/api v0.22.0
	k8s.io/apimachinery v0.22.0
	k8s.io/client-go v11.0.1-0.20190409021438-1a26190bd76a+incompatible
	k8s.io/component-base v0.22.0
	k8s.io/kube-openapi v0.0.0-20210421082810-95288971da7e
	k8s.io/kubectl v0.22.2
)
